<?xml version="1.0" encoding="utf-8"?>
<!-- Generator: Adobe Illustrator 21.0.0, SVG Export Plug-In . SVG Version: 6.00 Build 0)  -->
<svg version="1.1" xmlns="http://www.w3.org/2000/svg" xmlns:xlink="http://www.w3.org/1999/xlink" x="0px" y="0px"
	 viewBox="0 0 485.9 74.6" style="enable-background:new 0 0 485.9 74.6;" xml:space="preserve">
<style type="text/css">
	.st0{display:none;}
	.st1{fill:#4B80B1;}
	.st2{fill:#60ACDA;}
</style>
<g id="Слой_1" class="st0">
	
		<image style="display:inline;overflow:visible;" width="489" height="75" xlink:href="../../Downloads/HW-med-logo.png"  transform="matrix(1 0 0 1 5.9142 -178.1886)">
	</image>
</g>
<g id="Слой_2">
	<path class="st1" d="M58.8,2.1c0,0-12.4,16.3-12.4,25.9S56,39.3,58.8,39.3s10.4-2.3,11.4-10.8S58.8,2.1,58.8,2.1z"/>
	<path class="st2" d="M45.2,19.2c1.5-5,3.5-9,6.4-11.7L40.5,0L0,27v16.6l40.8-26.7L45.2,19.2z"/>
	<path class="st2" d="M72.1,20.7c2.3,5.8,1.9,11.1-1,16.1L81.4,43V27L72.1,20.7z"/>
	<path class="st1" d="M6.8,44.2v25.6c0,0,7.2-7.2,18.8-7.8c11.6-0.5,15.7,8.8,28.7,11.8s20.9-4.2,20.9-4.2V43c0,0-5.6,7.8-16.9,8.2
		S33.6,37.8,21.4,38.6S6.8,44.2,6.8,44.2z"/>
	<polygon class="st1" points="127.2,20.7 127.2,39.2 110.1,39.2 110.1,20.7 101.1,20.7 101.1,64.7 110.1,64.7 110.1,46.7 
		127.2,46.7 127.2,64.7 136.2,64.7 136.2,20.7 	"/>
	<polygon class="st1" points="274.6,28.5 274.6,21 259.4,21 250.4,21 250.4,28.5 250.4,39.2 250.4,46.7 250.4,57.4 250.4,65 
		259.4,65 274.6,65 274.6,57.4 259.4,57.4 259.4,46.7 274.6,46.7 274.6,39.2 259.4,39.2 259.4,28.5 	"/>
	<polygon class="st1" points="447.2,28.5 447.2,21 432.1,21 423.1,21 423.1,28.5 423.1,39.2 423.1,46.7 423.1,57.4 423.1,65 
		432.1,65 447.2,65 447.2,57.4 432.1,57.4 432.1,46.7 447.2,46.7 447.2,39.2 432.1,39.2 432.1,28.5 	"/>
	<polygon class="st1" points="418.6,21 408.1,21 399.1,21 388.8,21 388.8,28.1 399.1,28.1 399.1,65 408.1,65 408.1,28.1 418.6,28.1 
			"/>
	<polygon class="st1" points="233.3,21 232.4,21 218.7,47.3 205.9,21 204.9,21 204.9,21 195.9,21 195.9,65 204.9,65 204.9,38.6 
		219,64.9 233.3,38.7 233.3,65 242.3,65 242.3,35.8 242.3,21 	"/>
	<polygon class="st1" points="294.5,21 306.8,65 315.7,65 322.9,36.7 330,65 338.8,65 351.2,21 341.8,21 334.4,48.2 327.4,21 
		318.7,21 311.5,48.2 304,21 	"/>
	<path class="st1" d="M475.1,48.7c6.2-1.8,10.7-7.2,10.7-13.5c0-7.5-6.3-13.6-14.2-14.1v0H464h-6.7H455v44h9V48.3L476.2,65l11.5,0
		L475.1,48.7z M464,28.1h4.7c4.3,0,7.8,3.3,7.8,7.4S473,43,468.7,43v0H464v-1.5V29.6V28.1z"/>
	<path class="st1" d="M355.3,51.1L351.2,65h9l4.8-15.6C361.6,52.2,358.6,53.9,355.3,51.1z"/>
	<path class="st1" d="M374.9,42c0.7,2.1,7.2,23,7.2,23h9.9c0,0-6.1-17.6-6.7-19.4C384.7,43.7,374.2,39.8,374.9,42z"/>
	<path class="st2" d="M357.3,46C357.8,44.7,366,21,366,21h10.9l7.3,20.1c0,0-6.3-3.1-10.5-2.1s-11.9,10.3-14.2,10.5
		C357,49.5,356.8,47.5,357.3,46z"/>
	<g id="Слой_4">
		<path class="st2" d="M176.1,42.1c-5.3,1.1-15.6,8.9-21.4,8.9c-4.4,0-9.3-4.2-11.3-6.2c0.9,11.3,10.7,20.2,22.5,20.2
			c12.1,0,21.9-9.2,22.6-20.8C185.4,43,179.8,41.3,176.1,42.1z"/>
	</g>
	<g id="Слой_6">
		<path class="st1" d="M154.5,47.3c0.5,0,0.9,0,1.4-0.1c-0.9-1.6-1.5-3.5-1.5-5.5c0-6.1,5-11.1,11.1-11.1c5.1,0,9.4,3.5,10.7,8.2
			c1.3-0.2,2.6-0.3,3.9-0.3c4.9,0.2,7.2,1.3,8.2,2c-1.3-11.2-10.9-19.9-22.4-19.9c-11.5,0-21,8.6-22.4,19.8
			C145.6,42.2,149.1,47.2,154.5,47.3z"/>
	</g>
	<path class="st2" d="M6.8,63.9v5.9c0,0,7.2-7.2,18.8-7.8c11.6-0.5,15.7,8.8,28.7,11.8s20.9-4.2,20.9-4.2v-5.4c0,0-4.8,5.1-16.1,5.6
		S37.5,57,25.2,57.7S6.8,63.9,6.8,63.9z"/>
</g>
<g id="Слой_5">
</g>
</svg>
